[
  {
    "_id": "2913c090-4de5-11e8-a734-c3770ed64262",
    "_type": "dashboard",
    "_source": {
      "title": "IPMS",
      "hits": 0,
      "description": "",
      "panelsJSON": "[{\"gridData\":{\"h\":2,\"i\":\"2\",\"w\":4,\"x\":8,\"y\":6},\"id\":\"71413540-51a6-11e8-a734-c3770ed64262\",\"panelIndex\":\"2\",\"title\":\"Sensor Status\",\"type\":\"visualization\",\"version\":\"6.2.2\"},{\"gridData\":{\"h\":3,\"i\":\"3\",\"w\":8,\"x\":0,\"y\":5},\"id\":\"d93529b0-519f-11e8-a734-c3770ed64262\",\"panelIndex\":\"3\",\"title\":\"Temperature & Humidity\",\"type\":\"visualization\",\"version\":\"6.2.2\"},{\"gridData\":{\"h\":3,\"i\":\"4\",\"w\":8,\"x\":0,\"y\":0},\"id\":\"bef75ea0-51a0-11e8-a734-c3770ed64262\",\"panelIndex\":\"4\",\"title\":\"Current\",\"type\":\"visualization\",\"version\":\"6.2.2\"},{\"embeddableConfig\":{\"vis\":{\"colors\":{\"0 - 60\":\"#7EB26D\",\"60 - 80\":\"#64B0C8\",\"80 - 100\":\"#BF1B00\"},\"defaultColors\":{\"0 - 60\":\"rgb(0,104,55)\",\"60 - 80\":\"rgb(255,255,190)\",\"80 - 100\":\"rgb(165,0,38)\"},\"legendOpen\":false}},\"gridData\":{\"h\":2,\"i\":\"10\",\"w\":2,\"x\":4,\"y\":10},\"id\":\"cf50ab90-51ae-11e8-a734-c3770ed64262\",\"panelIndex\":\"10\",\"title\":\"Humidity\",\"type\":\"visualization\",\"version\":\"6.2.2\"},{\"embeddableConfig\":{\"vis\":{\"colors\":{\"0 - 26\":\"#7EB26D\",\"26 - 30\":\"#EF843C\",\"30 - 100\":\"#BF1B00\"},\"defaultColors\":{\"0 - 26\":\"rgb(0,104,55)\",\"26 - 30\":\"rgb(255,255,190)\",\"30 - 100\":\"rgb(165,0,38)\"},\"legendOpen\":false}},\"gridData\":{\"h\":2,\"i\":\"11\",\"w\":2,\"x\":0,\"y\":10},\"id\":\"5aadd390-51b2-11e8-a734-c3770ed64262\",\"panelIndex\":\"11\",\"title\":\"Temperature 1\",\"type\":\"visualization\",\"version\":\"6.2.2\"},{\"embeddableConfig\":{\"spy\":null,\"vis\":{\"colors\":{\"0 - 26\":\"#7EB26D\",\"26 - 30\":\"#EF843C\",\"30 - 100\":\"#BF1B00\"},\"defaultColors\":{\"0 - 26\":\"rgb(0,104,55)\",\"26 - 30\":\"rgb(255,255,190)\",\"30 - 100\":\"rgb(165,0,38)\"},\"legendOpen\":false}},\"gridData\":{\"h\":2,\"i\":\"12\",\"w\":2,\"x\":2,\"y\":10},\"id\":\"66fc00e0-51b2-11e8-a734-c3770ed64262\",\"panelIndex\":\"12\",\"title\":\"Temperature 2\",\"type\":\"visualization\",\"version\":\"6.2.2\"},{\"gridData\":{\"h\":2,\"i\":\"13\",\"w\":2,\"x\":6,\"y\":10},\"id\":\"63c66aa0-51ad-11e8-a734-c3770ed64262\",\"panelIndex\":\"13\",\"title\":\"Average Temperature 1\",\"type\":\"visualization\",\"version\":\"6.2.2\"},{\"gridData\":{\"h\":2,\"i\":\"14\",\"w\":2,\"x\":8,\"y\":10},\"id\":\"72d76170-51ad-11e8-a734-c3770ed64262\",\"panelIndex\":\"14\",\"title\":\"Average Temperature 2\",\"type\":\"visualization\",\"version\":\"6.2.2\"},{\"gridData\":{\"h\":2,\"i\":\"16\",\"w\":2,\"x\":10,\"y\":10},\"id\":\"7dd62b60-51ad-11e8-a734-c3770ed64262\",\"panelIndex\":\"16\",\"title\":\"Average Humidity\",\"type\":\"visualization\",\"version\":\"6.2.2\"},{\"embeddableConfig\":{\"vis\":{\"colors\":{\"0 to 26\":\"#508642\",\"26 to 30\":\"#0A437C\",\"30 to 100\":\"#BF1B00\"},\"legendOpen\":true}},\"gridData\":{\"h\":2,\"i\":\"17\",\"w\":2,\"x\":6,\"y\":8},\"id\":\"4a3e54d0-51cb-11e8-a734-c3770ed64262\",\"panelIndex\":\"17\",\"title\":\"Statistics Temperature 1\",\"type\":\"visualization\",\"version\":\"6.2.2\"},{\"embeddableConfig\":{\"vis\":{\"colors\":{\"0 to 26\":\"#508642\",\"26 to 30\":\"#0A437C\",\"30 to 100\":\"#BF1B00\"},\"legendOpen\":true}},\"gridData\":{\"h\":2,\"i\":\"18\",\"w\":2,\"x\":8,\"y\":8},\"id\":\"5a746ab0-51cb-11e8-a734-c3770ed64262\",\"panelIndex\":\"18\",\"title\":\"Statistics Temperature 2\",\"type\":\"visualization\",\"version\":\"6.2.2\"},{\"embeddableConfig\":{\"spy\":null,\"vis\":{\"colors\":{\"0 to 60\":\"#508642\",\"60 to 80\":\"#0A437C\",\"80 to 100\":\"#BF1B00\"}}},\"gridData\":{\"h\":2,\"i\":\"19\",\"w\":2,\"x\":10,\"y\":8},\"id\":\"76b451e0-51cb-11e8-a734-c3770ed64262\",\"panelIndex\":\"19\",\"title\":\"Statistics Humidity\",\"type\":\"visualization\",\"version\":\"6.2.2\"},{\"gridData\":{\"h\":2,\"i\":\"21\",\"w\":4,\"x\":4,\"y\":3},\"id\":\"aeb20de0-519d-11e8-a734-c3770ed64262\",\"panelIndex\":\"21\",\"title\":\"Mode AC\",\"type\":\"visualization\",\"version\":\"6.2.2\"},{\"embeddableConfig\":{\"spy\":null,\"vis\":{\"colors\":{\"OFF\":\"#E24D42\",\"ON\":\"#7EB26D\"},\"legendOpen\":false}},\"gridData\":{\"h\":3,\"i\":\"22\",\"w\":2,\"x\":8,\"y\":0},\"id\":\"5dd97460-51db-11e8-a734-c3770ed64262\",\"panelIndex\":\"22\",\"title\":\"Statistics AC1\",\"type\":\"visualization\",\"version\":\"6.2.2\"},{\"embeddableConfig\":{\"spy\":null,\"vis\":{\"colors\":{\"OFF\":\"#E24D42\",\"ON\":\"#7EB26D\"},\"legendOpen\":false}},\"gridData\":{\"h\":3,\"i\":\"23\",\"w\":2,\"x\":10,\"y\":0},\"id\":\"7055f7d0-51db-11e8-a734-c3770ed64262\",\"panelIndex\":\"23\",\"title\":\"Statistics AC2\",\"type\":\"visualization\",\"version\":\"6.2.2\"},{\"embeddableConfig\":{\"spy\":null,\"vis\":{\"colors\":{\"OFF\":\"#E24D42\",\"ON\":\"#7EB26D\"},\"legendOpen\":false}},\"gridData\":{\"h\":3,\"i\":\"24\",\"w\":2,\"x\":8,\"y\":3},\"id\":\"85062420-51db-11e8-a734-c3770ed64262\",\"panelIndex\":\"24\",\"title\":\"Statistics AC3\",\"type\":\"visualization\",\"version\":\"6.2.2\"},{\"embeddableConfig\":{\"spy\":null,\"vis\":{\"colors\":{\"OFF\":\"#7EB26D\",\"ON\":\"#E24D42\"},\"legendOpen\":false}},\"gridData\":{\"h\":3,\"i\":\"25\",\"w\":2,\"x\":10,\"y\":3},\"id\":\"904356a0-51db-11e8-a734-c3770ed64262\",\"panelIndex\":\"25\",\"title\":\"Statistics AC4\",\"type\":\"visualization\",\"version\":\"6.2.2\"},{\"gridData\":{\"h\":2,\"i\":\"26\",\"w\":4,\"x\":0,\"y\":3},\"id\":\"08c82ae0-5274-11e8-a734-c3770ed64262\",\"panelIndex\":\"26\",\"title\":\"Status AC\",\"type\":\"visualization\",\"version\":\"6.2.2\"},{\"gridData\":{\"h\":2,\"i\":\"27\",\"w\":6,\"x\":0,\"y\":8},\"id\":\"fb25ef60-52ac-11e8-a734-c3770ed64262\",\"panelIndex\":\"27\",\"type\":\"visualization\",\"version\":\"6.2.2\"}]",
      "optionsJSON": "{\"darkTheme\":true,\"hidePanelTitles\":false,\"useMargins\":true}",
      "version": 1,
      "timeRestore": false,
      "kibanaSavedObjectMeta": {
        "searchSourceJSON": "{\"query\":{\"language\":\"lucene\",\"query\":\"\"},\"filter\":[],\"highlightAll\":true,\"version\":true}"
      }
    },
    "_meta": {
      "savedObjectVersion": 2
    }
  },
  {
    "_id": "7c41f070-51a5-11e8-a734-c3770ed64262",
    "_type": "visualization",
    "_source": {
      "title": "TempHumMetrics",
      "visState": "{\"title\":\"TempHumMetrics\",\"type\":\"metric\",\"params\":{\"addTooltip\":true,\"addLegend\":false,\"type\":\"metric\",\"metric\":{\"percentageMode\":false,\"useRanges\":false,\"colorSchema\":\"Green to Red\",\"metricColorMode\":\"None\",\"colorsRange\":[{\"from\":0,\"to\":10000}],\"labels\":{\"show\":true},\"invertColors\":false,\"style\":{\"bgFill\":\"#000\",\"bgColor\":false,\"labelColor\":false,\"subText\":\"\",\"fontSize\":20}}},\"aggs\":[{\"id\":\"1\",\"enabled\":true,\"type\":\"top_hits\",\"schema\":\"metric\",\"params\":{\"field\":\"Temperature_1\",\"aggregate\":\"concat\",\"size\":1,\"sortField\":\"mDateTime\",\"sortOrder\":\"desc\",\"customLabel\":\"Temperature 1\"}},{\"id\":\"2\",\"enabled\":true,\"type\":\"top_hits\",\"schema\":\"metric\",\"params\":{\"field\":\"Temperature_2\",\"aggregate\":\"concat\",\"size\":1,\"sortField\":\"mDateTime\",\"sortOrder\":\"desc\",\"customLabel\":\"Temperature 2\"}},{\"id\":\"3\",\"enabled\":true,\"type\":\"top_hits\",\"schema\":\"metric\",\"params\":{\"field\":\"Humidity\",\"aggregate\":\"average\",\"size\":1,\"sortField\":\"mDateTime\",\"sortOrder\":\"desc\",\"customLabel\":\"Humidity\"}}]}",
      "uiStateJSON": "{}",
      "description": "",
      "version": 1,
      "kibanaSavedObjectMeta": {
        "searchSourceJSON": "{\"index\":\"df255740-5150-11e8-a734-c3770ed64262\",\"filter\":[],\"query\":{\"query\":\"\",\"language\":\"lucene\"}}"
      }
    },
    "_meta": {
      "savedObjectVersion": 2
    }
  },
  {
    "_id": "a8f04c80-51ae-11e8-a734-c3770ed64262",
    "_type": "visualization",
    "_source": {
      "title": "TempGauge",
      "visState": "{\"title\":\"TempGauge\",\"type\":\"gauge\",\"params\":{\"type\":\"gauge\",\"addTooltip\":true,\"addLegend\":true,\"isDisplayWarning\":false,\"gauge\":{\"verticalSplit\":false,\"extendRange\":true,\"percentageMode\":false,\"gaugeType\":\"Arc\",\"gaugeStyle\":\"Full\",\"backStyle\":\"Full\",\"orientation\":\"vertical\",\"colorSchema\":\"Green to Red\",\"gaugeColorMode\":\"Labels\",\"colorsRange\":[{\"from\":0,\"to\":26},{\"from\":26,\"to\":30},{\"from\":30,\"to\":100}],\"invertColors\":false,\"labels\":{\"show\":true,\"color\":\"black\"},\"scale\":{\"show\":true,\"labels\":false,\"color\":\"#333\"},\"type\":\"meter\",\"style\":{\"bgWidth\":0.9,\"width\":0.9,\"mask\":false,\"bgMask\":false,\"maskBars\":50,\"bgFill\":\"#eee\",\"bgColor\":false,\"subText\":\"\",\"fontSize\":60,\"labelColor\":true}}},\"aggs\":[{\"id\":\"1\",\"enabled\":true,\"type\":\"top_hits\",\"schema\":\"metric\",\"params\":{\"field\":\"Temperature_1\",\"aggregate\":\"average\",\"size\":1,\"sortField\":\"mDateTime\",\"sortOrder\":\"desc\",\"customLabel\":\"Temperature 1\"}},{\"id\":\"2\",\"enabled\":true,\"type\":\"top_hits\",\"schema\":\"metric\",\"params\":{\"field\":\"Temperature_2\",\"aggregate\":\"average\",\"size\":1,\"sortField\":\"mDateTime\",\"sortOrder\":\"desc\",\"customLabel\":\"Temperature 2\"}}]}",
      "uiStateJSON": "{\"vis\":{\"defaultColors\":{\"0 - 26\":\"rgb(0,104,55)\",\"26 - 30\":\"rgb(255,255,190)\",\"30 - 100\":\"rgb(165,0,38)\"},\"colors\":{\"0 - 26\":\"#7EB26D\",\"26 - 30\":\"#EF843C\",\"30 - 100\":\"#BF1B00\"},\"legendOpen\":true}}",
      "description": "",
      "version": 1,
      "kibanaSavedObjectMeta": {
        "searchSourceJSON": "{\"index\":\"df255740-5150-11e8-a734-c3770ed64262\",\"filter\":[],\"query\":{\"query\":\"\",\"language\":\"lucene\"}}"
      }
    },
    "_meta": {
      "savedObjectVersion": 2
    }
  },
  {
    "_id": "1413b650-51a5-11e8-a734-c3770ed64262",
    "_type": "visualization",
    "_source": {
      "title": "StatusMetrics",
      "visState": "{\"title\":\"StatusMetrics\",\"type\":\"metric\",\"params\":{\"addTooltip\":true,\"addLegend\":false,\"type\":\"metric\",\"metric\":{\"percentageMode\":false,\"useRanges\":false,\"colorSchema\":\"Green to Red\",\"metricColorMode\":\"None\",\"colorsRange\":[{\"from\":0,\"to\":10000}],\"labels\":{\"show\":true},\"invertColors\":false,\"style\":{\"bgFill\":\"#000\",\"bgColor\":false,\"labelColor\":false,\"subText\":\"\",\"fontSize\":20}}},\"aggs\":[{\"id\":\"1\",\"enabled\":true,\"type\":\"top_hits\",\"schema\":\"metric\",\"params\":{\"field\":\"Status_1\",\"aggregate\":\"concat\",\"size\":1,\"sortField\":\"mDateTime\",\"sortOrder\":\"desc\",\"customLabel\":\"AC1\"}},{\"id\":\"2\",\"enabled\":true,\"type\":\"top_hits\",\"schema\":\"metric\",\"params\":{\"field\":\"Status_2\",\"aggregate\":\"concat\",\"size\":1,\"sortField\":\"mDateTime\",\"sortOrder\":\"desc\",\"customLabel\":\"AC2\"}},{\"id\":\"3\",\"enabled\":true,\"type\":\"top_hits\",\"schema\":\"metric\",\"params\":{\"field\":\"Status_3\",\"aggregate\":\"concat\",\"size\":1,\"sortField\":\"mDateTime\",\"sortOrder\":\"desc\",\"customLabel\":\"AC3\"}},{\"id\":\"4\",\"enabled\":true,\"type\":\"top_hits\",\"schema\":\"metric\",\"params\":{\"field\":\"Status_4\",\"aggregate\":\"concat\",\"size\":1,\"sortField\":\"mDateTime\",\"sortOrder\":\"desc\",\"customLabel\":\"AC4\"}}]}",
      "uiStateJSON": "{}",
      "description": "",
      "version": 1,
      "kibanaSavedObjectMeta": {
        "searchSourceJSON": "{\"index\":\"df255740-5150-11e8-a734-c3770ed64262\",\"filter\":[],\"query\":{\"query\":\"\",\"language\":\"lucene\"}}"
      }
    },
    "_meta": {
      "savedObjectVersion": 2
    }
  },
  {
    "_id": "7055f7d0-51db-11e8-a734-c3770ed64262",
    "_type": "visualization",
    "_source": {
      "title": "Status2Pie",
      "visState": "{\"title\":\"Status2Pie\",\"type\":\"pie\",\"params\":{\"type\":\"pie\",\"addTooltip\":true,\"addLegend\":true,\"legendPosition\":\"bottom\",\"isDonut\":true,\"labels\":{\"show\":true,\"values\":true,\"last_level\":false,\"truncate\":100}},\"aggs\":[{\"id\":\"1\",\"enabled\":true,\"type\":\"count\",\"schema\":\"metric\",\"params\":{}},{\"id\":\"2\",\"enabled\":true,\"type\":\"terms\",\"schema\":\"segment\",\"params\":{\"field\":\"Status_2.keyword\",\"otherBucket\":false,\"otherBucketLabel\":\"Other\",\"missingBucket\":false,\"missingBucketLabel\":\"Missing\",\"size\":2,\"order\":\"desc\",\"orderBy\":\"1\",\"customLabel\":\"Active Time\"}}]}",
      "uiStateJSON": "{\"spy\":null}",
      "description": "",
      "version": 1,
      "kibanaSavedObjectMeta": {
        "searchSourceJSON": "{\"index\":\"df255740-5150-11e8-a734-c3770ed64262\",\"filter\":[],\"query\":{\"query\":\"\",\"language\":\"lucene\"}}"
      }
    },
    "_meta": {
      "savedObjectVersion": 2
    }
  },
  {
    "_id": "85062420-51db-11e8-a734-c3770ed64262",
    "_type": "visualization",
    "_source": {
      "title": "Status3Pie",
      "visState": "{\"title\":\"Status3Pie\",\"type\":\"pie\",\"params\":{\"type\":\"pie\",\"addTooltip\":true,\"addLegend\":true,\"legendPosition\":\"bottom\",\"isDonut\":true,\"labels\":{\"show\":true,\"values\":true,\"last_level\":false,\"truncate\":100}},\"aggs\":[{\"id\":\"1\",\"enabled\":true,\"type\":\"count\",\"schema\":\"metric\",\"params\":{}},{\"id\":\"2\",\"enabled\":true,\"type\":\"terms\",\"schema\":\"segment\",\"params\":{\"field\":\"Status_3.keyword\",\"otherBucket\":false,\"otherBucketLabel\":\"Other\",\"missingBucket\":false,\"missingBucketLabel\":\"Missing\",\"size\":2,\"order\":\"desc\",\"orderBy\":\"1\",\"customLabel\":\"Active Time\"}}]}",
      "uiStateJSON": "{\"spy\":null}",
      "description": "",
      "version": 1,
      "kibanaSavedObjectMeta": {
        "searchSourceJSON": "{\"index\":\"df255740-5150-11e8-a734-c3770ed64262\",\"filter\":[],\"query\":{\"query\":\"\",\"language\":\"lucene\"}}"
      }
    },
    "_meta": {
      "savedObjectVersion": 2
    }
  },
  {
    "_id": "904356a0-51db-11e8-a734-c3770ed64262",
    "_type": "visualization",
    "_source": {
      "title": "Status4Pie",
      "visState": "{\"title\":\"Status4Pie\",\"type\":\"pie\",\"params\":{\"type\":\"pie\",\"addTooltip\":true,\"addLegend\":true,\"legendPosition\":\"bottom\",\"isDonut\":true,\"labels\":{\"show\":true,\"values\":true,\"last_level\":false,\"truncate\":100}},\"aggs\":[{\"id\":\"1\",\"enabled\":true,\"type\":\"count\",\"schema\":\"metric\",\"params\":{}},{\"id\":\"2\",\"enabled\":true,\"type\":\"terms\",\"schema\":\"segment\",\"params\":{\"field\":\"Status_4.keyword\",\"otherBucket\":false,\"otherBucketLabel\":\"Other\",\"missingBucket\":false,\"missingBucketLabel\":\"Missing\",\"size\":2,\"order\":\"desc\",\"orderBy\":\"1\",\"customLabel\":\"Active Time\"}}]}",
      "uiStateJSON": "{\"spy\":null}",
      "description": "",
      "version": 1,
      "kibanaSavedObjectMeta": {
        "searchSourceJSON": "{\"index\":\"df255740-5150-11e8-a734-c3770ed64262\",\"filter\":[],\"query\":{\"language\":\"lucene\",\"query\":\"\"}}"
      }
    },
    "_meta": {
      "savedObjectVersion": 2
    }
  },
  {
    "_id": "aeb20de0-519d-11e8-a734-c3770ed64262",
    "_type": "visualization",
    "_source": {
      "title": "ActiveIconMetrics",
      "visState": "{\"title\":\"ActiveIconMetrics\",\"type\":\"metric\",\"params\":{\"addTooltip\":true,\"addLegend\":false,\"type\":\"metric\",\"metric\":{\"percentageMode\":false,\"useRanges\":false,\"colorSchema\":\"Green to Red\",\"metricColorMode\":\"None\",\"colorsRange\":[{\"from\":0,\"to\":10000}],\"labels\":{\"show\":true},\"invertColors\":false,\"style\":{\"bgFill\":\"#000\",\"bgColor\":false,\"labelColor\":false,\"subText\":\"\",\"fontSize\":15}}},\"aggs\":[{\"id\":\"1\",\"enabled\":true,\"type\":\"top_hits\",\"schema\":\"metric\",\"params\":{\"field\":\"Active1Icon\",\"aggregate\":\"concat\",\"size\":1,\"sortField\":\"mDateTime\",\"sortOrder\":\"desc\",\"customLabel\":\"AC1\"}},{\"id\":\"2\",\"enabled\":true,\"type\":\"top_hits\",\"schema\":\"metric\",\"params\":{\"field\":\"Active2Icon\",\"aggregate\":\"concat\",\"size\":1,\"sortField\":\"mDateTime\",\"sortOrder\":\"desc\",\"customLabel\":\"AC2\"}},{\"id\":\"3\",\"enabled\":true,\"type\":\"top_hits\",\"schema\":\"metric\",\"params\":{\"field\":\"Active3Icon\",\"aggregate\":\"concat\",\"size\":1,\"sortField\":\"mDateTime\",\"sortOrder\":\"desc\",\"customLabel\":\"AC3\"}},{\"id\":\"4\",\"enabled\":true,\"type\":\"top_hits\",\"schema\":\"metric\",\"params\":{\"field\":\"Active4Icon\",\"aggregate\":\"concat\",\"size\":1,\"sortField\":\"mDateTime\",\"sortOrder\":\"desc\",\"customLabel\":\"AC4\"}}]}",
      "uiStateJSON": "{\"spy\":null}",
      "description": "",
      "version": 1,
      "kibanaSavedObjectMeta": {
        "searchSourceJSON": "{\"index\":\"df255740-5150-11e8-a734-c3770ed64262\",\"filter\":[],\"query\":{\"query\":\"\",\"language\":\"lucene\"}}"
      }
    },
    "_meta": {
      "savedObjectVersion": 2
    }
  },
  {
    "_id": "08c82ae0-5274-11e8-a734-c3770ed64262",
    "_type": "visualization",
    "_source": {
      "title": "StatusIconMetrics",
      "visState": "{\"title\":\"StatusIconMetrics\",\"type\":\"metric\",\"params\":{\"addTooltip\":true,\"addLegend\":false,\"type\":\"metric\",\"metric\":{\"percentageMode\":false,\"useRanges\":false,\"colorSchema\":\"Green to Red\",\"metricColorMode\":\"None\",\"colorsRange\":[{\"from\":0,\"to\":10000}],\"labels\":{\"show\":true},\"invertColors\":false,\"style\":{\"bgFill\":\"#000\",\"bgColor\":false,\"labelColor\":false,\"subText\":\"\",\"fontSize\":60}}},\"aggs\":[{\"id\":\"1\",\"enabled\":true,\"type\":\"top_hits\",\"schema\":\"metric\",\"params\":{\"field\":\"Status1Icon\",\"aggregate\":\"concat\",\"size\":1,\"sortField\":\"mDateTime\",\"sortOrder\":\"desc\",\"customLabel\":\"Status 1\"}},{\"id\":\"2\",\"enabled\":true,\"type\":\"top_hits\",\"schema\":\"metric\",\"params\":{\"field\":\"Status2Icon\",\"aggregate\":\"concat\",\"size\":1,\"sortField\":\"mDateTime\",\"sortOrder\":\"desc\",\"customLabel\":\"Status 2\"}},{\"id\":\"3\",\"enabled\":true,\"type\":\"top_hits\",\"schema\":\"metric\",\"params\":{\"field\":\"Status3Icon\",\"aggregate\":\"concat\",\"size\":1,\"sortField\":\"mDateTime\",\"sortOrder\":\"desc\",\"customLabel\":\"Status 3\"}},{\"id\":\"4\",\"enabled\":true,\"type\":\"top_hits\",\"schema\":\"metric\",\"params\":{\"field\":\"Status4Icon\",\"aggregate\":\"concat\",\"size\":1,\"sortField\":\"mDateTime\",\"sortOrder\":\"desc\",\"customLabel\":\"Status 4\"}}]}",
      "uiStateJSON": "{}",
      "description": "",
      "version": 1,
      "kibanaSavedObjectMeta": {
        "searchSourceJSON": "{\"index\":\"df255740-5150-11e8-a734-c3770ed64262\",\"filter\":[],\"query\":{\"language\":\"lucene\",\"query\":\"\"}}"
      }
    },
    "_meta": {
      "savedObjectVersion": 2
    }
  },
  {
    "_id": "5dd97460-51db-11e8-a734-c3770ed64262",
    "_type": "visualization",
    "_source": {
      "title": "Status1Pie",
      "visState": "{\"title\":\"Status1Pie\",\"type\":\"pie\",\"params\":{\"type\":\"pie\",\"addTooltip\":true,\"addLegend\":true,\"legendPosition\":\"bottom\",\"isDonut\":true,\"labels\":{\"show\":true,\"values\":true,\"last_level\":false,\"truncate\":100}},\"aggs\":[{\"id\":\"1\",\"enabled\":true,\"type\":\"count\",\"schema\":\"metric\",\"params\":{}},{\"id\":\"2\",\"enabled\":true,\"type\":\"terms\",\"schema\":\"segment\",\"params\":{\"field\":\"Status_1.keyword\",\"otherBucket\":false,\"otherBucketLabel\":\"Other\",\"missingBucket\":false,\"missingBucketLabel\":\"Missing\",\"size\":2,\"order\":\"desc\",\"orderBy\":\"1\",\"customLabel\":\"Active Time\"}}]}",
      "uiStateJSON": "{\"spy\":null,\"vis\":{\"colors\":{\"OFF\":\"#BF1B00\",\"ON\":\"#64B0C8\"}}}",
      "description": "",
      "version": 1,
      "kibanaSavedObjectMeta": {
        "searchSourceJSON": "{\"index\":\"df255740-5150-11e8-a734-c3770ed64262\",\"filter\":[],\"query\":{\"query\":\"\",\"language\":\"lucene\"}}"
      }
    },
    "_meta": {
      "savedObjectVersion": 2
    }
  },
  {
    "_id": "b55966b0-5270-11e8-a734-c3770ed64262",
    "_type": "visualization",
    "_source": {
      "title": "test",
      "visState": "{\"title\":\"test\",\"type\":\"metric\",\"params\":{\"addTooltip\":true,\"addLegend\":false,\"type\":\"metric\",\"metric\":{\"percentageMode\":false,\"useRanges\":false,\"colorSchema\":\"Green to Red\",\"metricColorMode\":\"None\",\"colorsRange\":[{\"from\":0,\"to\":10000}],\"labels\":{\"show\":true},\"invertColors\":false,\"style\":{\"bgFill\":\"#000\",\"bgColor\":false,\"labelColor\":false,\"subText\":\"\",\"fontSize\":60}}},\"aggs\":[{\"id\":\"1\",\"enabled\":true,\"type\":\"top_hits\",\"schema\":\"metric\",\"params\":{\"field\":\"Status1Icon\",\"aggregate\":\"concat\",\"size\":1,\"sortField\":\"mDateTime\",\"sortOrder\":\"desc\"}},{\"id\":\"2\",\"enabled\":true,\"type\":\"top_hits\",\"schema\":\"metric\",\"params\":{\"field\":\"Status1Icon\",\"aggregate\":\"concat\",\"size\":1,\"sortField\":\"mDateTime\",\"sortOrder\":\"desc\"}}]}",
      "uiStateJSON": "{}",
      "description": "",
      "version": 1,
      "kibanaSavedObjectMeta": {
        "searchSourceJSON": "{\"index\":\"df255740-5150-11e8-a734-c3770ed64262\",\"filter\":[],\"query\":{\"query\":\"\",\"language\":\"lucene\"}}"
      }
    },
    "_meta": {
      "savedObjectVersion": 2
    }
  },
  {
    "_id": "76b451e0-51cb-11e8-a734-c3770ed64262",
    "_type": "visualization",
    "_source": {
      "title": "HumPie",
      "visState": "{\"title\":\"HumPie\",\"type\":\"pie\",\"params\":{\"addLegend\":true,\"addTooltip\":true,\"isDonut\":true,\"labels\":{\"last_level\":true,\"show\":false,\"truncate\":100,\"values\":true},\"legendPosition\":\"bottom\",\"type\":\"pie\"},\"aggs\":[{\"id\":\"1\",\"enabled\":true,\"type\":\"count\",\"schema\":\"metric\",\"params\":{\"customLabel\":\"Humidity\"}},{\"id\":\"2\",\"enabled\":true,\"type\":\"range\",\"schema\":\"segment\",\"params\":{\"field\":\"Humidity\",\"ranges\":[{\"from\":0,\"to\":60},{\"from\":60,\"to\":80},{\"from\":80,\"to\":100}],\"customLabel\":\"Humidity\"}}]}",
      "uiStateJSON": "{}",
      "description": "",
      "version": 1,
      "kibanaSavedObjectMeta": {
        "searchSourceJSON": "{\"index\":\"df255740-5150-11e8-a734-c3770ed64262\",\"filter\":[],\"query\":{\"query\":\"\",\"language\":\"lucene\"}}"
      }
    },
    "_meta": {
      "savedObjectVersion": 2
    }
  },
  {
    "_id": "cf50ab90-51ae-11e8-a734-c3770ed64262",
    "_type": "visualization",
    "_source": {
      "title": "HumGauge",
      "visState": "{\"title\":\"HumGauge\",\"type\":\"gauge\",\"params\":{\"type\":\"gauge\",\"addTooltip\":true,\"addLegend\":true,\"isDisplayWarning\":false,\"gauge\":{\"verticalSplit\":false,\"extendRange\":true,\"percentageMode\":false,\"gaugeType\":\"Arc\",\"gaugeStyle\":\"Full\",\"backStyle\":\"Full\",\"orientation\":\"vertical\",\"colorSchema\":\"Green to Red\",\"gaugeColorMode\":\"Labels\",\"colorsRange\":[{\"from\":0,\"to\":60},{\"from\":60,\"to\":80},{\"from\":80,\"to\":100}],\"invertColors\":false,\"labels\":{\"show\":true,\"color\":\"black\"},\"scale\":{\"show\":true,\"labels\":false,\"color\":\"#333\"},\"type\":\"meter\",\"style\":{\"bgWidth\":0.9,\"width\":0.9,\"mask\":false,\"bgMask\":false,\"maskBars\":50,\"bgFill\":\"#eee\",\"bgColor\":false,\"subText\":\"\",\"fontSize\":60,\"labelColor\":true}}},\"aggs\":[{\"id\":\"1\",\"enabled\":true,\"type\":\"top_hits\",\"schema\":\"metric\",\"params\":{\"field\":\"Humidity\",\"aggregate\":\"average\",\"size\":1,\"sortField\":\"mDateTime\",\"sortOrder\":\"desc\",\"customLabel\":\"Last Humidity\"}}]}",
      "uiStateJSON": "{\"vis\":{\"defaultColors\":{\"0 - 60\":\"rgb(0,104,55)\",\"60 - 80\":\"rgb(255,255,190)\",\"80 - 100\":\"rgb(165,0,38)\"},\"colors\":{\"60 - 80\":\"#6ED0E0\",\"0 - 60\":\"#7EB26D\",\"80 - 100\":\"#E24D42\"}}}",
      "description": "",
      "version": 1,
      "kibanaSavedObjectMeta": {
        "searchSourceJSON": "{\"index\":\"df255740-5150-11e8-a734-c3770ed64262\",\"filter\":[],\"query\":{\"query\":\"\",\"language\":\"lucene\"}}"
      }
    },
    "_meta": {
      "savedObjectVersion": 2
    }
  },
  {
    "_id": "72d76170-51ad-11e8-a734-c3770ed64262",
    "_type": "visualization",
    "_source": {
      "title": "AvTemp2",
      "visState": "{\"title\":\"AvTemp2\",\"type\":\"metrics\",\"params\":{\"id\":\"61ca57f0-469d-11e7-af02-69e470af7417\",\"type\":\"gauge\",\"series\":[{\"id\":\"61ca57f1-469d-11e7-af02-69e470af7417\",\"color\":\"rgba(0,156,224,1)\",\"split_mode\":\"everything\",\"metrics\":[{\"id\":\"61ca57f2-469d-11e7-af02-69e470af7417\",\"type\":\"avg\",\"field\":\"Temperature_2\"}],\"seperate_axis\":0,\"axis_position\":\"right\",\"formatter\":\"number\",\"chart_type\":\"line\",\"line_width\":1,\"point_size\":1,\"fill\":0.5,\"stacked\":\"none\",\"label\":\"Average Temperature 2\"}],\"time_field\":\"mDateTime\",\"index_pattern\":\"ipmsindex\",\"interval\":\"auto\",\"axis_position\":\"left\",\"axis_formatter\":\"number\",\"show_legend\":1,\"show_grid\":1,\"gauge_color_rules\":[{\"id\":\"90e86680-51aa-11e8-a825-cd6073d736e3\"}],\"gauge_width\":\"20\",\"gauge_inner_width\":\"20\",\"gauge_style\":\"half\",\"background_color_rules\":[{\"id\":\"9397a800-51aa-11e8-a825-cd6073d736e3\"}],\"bar_color_rules\":[{\"id\":\"3a865620-51ab-11e8-a825-cd6073d736e3\"}],\"drop_last_bucket\":1,\"gauge_max\":\"100\"},\"aggs\":[]}",
      "uiStateJSON": "{}",
      "description": "",
      "version": 1,
      "kibanaSavedObjectMeta": {
        "searchSourceJSON": "{}"
      }
    },
    "_meta": {
      "savedObjectVersion": 2
    }
  },
  {
    "_id": "63c66aa0-51ad-11e8-a734-c3770ed64262",
    "_type": "visualization",
    "_source": {
      "title": "AvTemp1",
      "visState": "{\"title\":\"AvTemp1\",\"type\":\"metrics\",\"params\":{\"id\":\"61ca57f0-469d-11e7-af02-69e470af7417\",\"type\":\"gauge\",\"series\":[{\"id\":\"61ca57f1-469d-11e7-af02-69e470af7417\",\"color\":\"rgba(0,156,224,1)\",\"split_mode\":\"everything\",\"metrics\":[{\"id\":\"61ca57f2-469d-11e7-af02-69e470af7417\",\"type\":\"avg\",\"field\":\"Temperature_1\"}],\"seperate_axis\":0,\"axis_position\":\"right\",\"formatter\":\"number\",\"chart_type\":\"line\",\"line_width\":1,\"point_size\":1,\"fill\":0.5,\"stacked\":\"none\",\"label\":\"Average Temperature 1\"}],\"time_field\":\"mDateTime\",\"index_pattern\":\"ipmsindex\",\"interval\":\"auto\",\"axis_position\":\"left\",\"axis_formatter\":\"number\",\"show_legend\":1,\"show_grid\":1,\"gauge_color_rules\":[{\"id\":\"90e86680-51aa-11e8-a825-cd6073d736e3\"}],\"gauge_width\":\"20\",\"gauge_inner_width\":\"20\",\"gauge_style\":\"half\",\"background_color_rules\":[{\"id\":\"9397a800-51aa-11e8-a825-cd6073d736e3\"}],\"bar_color_rules\":[{\"id\":\"3a865620-51ab-11e8-a825-cd6073d736e3\"}],\"drop_last_bucket\":1,\"gauge_max\":\"100\"},\"aggs\":[]}",
      "uiStateJSON": "{}",
      "description": "",
      "version": 1,
      "kibanaSavedObjectMeta": {
        "searchSourceJSON": "{}"
      }
    },
    "_meta": {
      "savedObjectVersion": 2
    }
  },
  {
    "_id": "fb25ef60-52ac-11e8-a734-c3770ed64262",
    "_type": "visualization",
    "_source": {
      "title": "TempHumIconMetrics",
      "visState": "{\"title\":\"TempHumIconMetrics\",\"type\":\"metric\",\"params\":{\"addTooltip\":true,\"addLegend\":false,\"type\":\"metric\",\"metric\":{\"percentageMode\":false,\"useRanges\":false,\"colorSchema\":\"Green to Red\",\"metricColorMode\":\"None\",\"colorsRange\":[{\"from\":0,\"to\":10000}],\"labels\":{\"show\":true},\"invertColors\":false,\"style\":{\"bgFill\":\"#000\",\"bgColor\":false,\"labelColor\":false,\"subText\":\"\",\"fontSize\":60}}},\"aggs\":[{\"id\":\"1\",\"enabled\":true,\"type\":\"top_hits\",\"schema\":\"metric\",\"params\":{\"field\":\"Temp1Url\",\"aggregate\":\"concat\",\"size\":1,\"sortField\":\"mDateTime\",\"sortOrder\":\"desc\",\"customLabel\":\"Temperature 1\"}},{\"id\":\"2\",\"enabled\":true,\"type\":\"top_hits\",\"schema\":\"metric\",\"params\":{\"field\":\"Temp2Url\",\"aggregate\":\"concat\",\"size\":1,\"sortField\":\"mDateTime\",\"sortOrder\":\"desc\",\"customLabel\":\"Temperature 2\"}},{\"id\":\"3\",\"enabled\":true,\"type\":\"top_hits\",\"schema\":\"metric\",\"params\":{\"field\":\"HumUrl\",\"aggregate\":\"concat\",\"size\":1,\"sortField\":\"mDateTime\",\"sortOrder\":\"desc\",\"customLabel\":\"Humidity\"}}]}",
      "uiStateJSON": "{}",
      "description": "",
      "version": 1,
      "kibanaSavedObjectMeta": {
        "searchSourceJSON": "{\"index\":\"df255740-5150-11e8-a734-c3770ed64262\",\"filter\":[],\"query\":{\"language\":\"lucene\",\"query\":\"\"}}"
      }
    },
    "_meta": {
      "savedObjectVersion": 2
    }
  },
  {
    "_id": "7dd62b60-51ad-11e8-a734-c3770ed64262",
    "_type": "visualization",
    "_source": {
      "title": "AvHum",
      "visState": "{\"title\":\"AvHum\",\"type\":\"metrics\",\"params\":{\"id\":\"61ca57f0-469d-11e7-af02-69e470af7417\",\"type\":\"gauge\",\"series\":[{\"id\":\"61ca57f1-469d-11e7-af02-69e470af7417\",\"color\":\"rgba(0,156,224,1)\",\"split_mode\":\"everything\",\"metrics\":[{\"id\":\"61ca57f2-469d-11e7-af02-69e470af7417\",\"type\":\"avg\",\"field\":\"Humidity\"}],\"seperate_axis\":0,\"axis_position\":\"right\",\"formatter\":\"number\",\"chart_type\":\"line\",\"line_width\":1,\"point_size\":1,\"fill\":0.5,\"stacked\":\"none\",\"label\":\"Average Humidity\"}],\"time_field\":\"mDateTime\",\"index_pattern\":\"ipmsindex\",\"interval\":\"auto\",\"axis_position\":\"left\",\"axis_formatter\":\"number\",\"show_legend\":1,\"show_grid\":1,\"gauge_color_rules\":[{\"id\":\"90e86680-51aa-11e8-a825-cd6073d736e3\"}],\"gauge_width\":\"20\",\"gauge_inner_width\":\"20\",\"gauge_style\":\"half\",\"background_color_rules\":[{\"id\":\"9397a800-51aa-11e8-a825-cd6073d736e3\"}],\"bar_color_rules\":[{\"id\":\"3a865620-51ab-11e8-a825-cd6073d736e3\"}],\"drop_last_bucket\":1,\"gauge_max\":\"100\"},\"aggs\":[]}",
      "uiStateJSON": "{}",
      "description": "",
      "version": 1,
      "kibanaSavedObjectMeta": {
        "searchSourceJSON": "{}"
      }
    },
    "_meta": {
      "savedObjectVersion": 2
    }
  },
  {
    "_id": "f8032760-52b3-11e8-a734-c3770ed64262",
    "_type": "visualization",
    "_source": {
      "title": "TempHumLine",
      "visState": "{\"title\":\"TempHumLine\",\"type\":\"line\",\"params\":{\"type\":\"line\",\"grid\":{\"categoryLines\":true,\"style\":{\"color\":\"#eee\"},\"valueAxis\":\"ValueAxis-1\"},\"categoryAxes\":[{\"id\":\"CategoryAxis-1\",\"type\":\"category\",\"position\":\"bottom\",\"show\":true,\"style\":{},\"scale\":{\"type\":\"linear\"},\"labels\":{\"show\":true,\"truncate\":100},\"title\":{}}],\"valueAxes\":[{\"id\":\"ValueAxis-1\",\"name\":\"LeftAxis-1\",\"type\":\"value\",\"position\":\"left\",\"show\":true,\"style\":{},\"scale\":{\"type\":\"linear\",\"mode\":\"normal\",\"setYExtents\":true,\"defaultYExtents\":true,\"max\":100,\"min\":0},\"labels\":{\"show\":true,\"rotate\":0,\"filter\":false,\"truncate\":100},\"title\":{\"text\":\"\"}}],\"seriesParams\":[{\"show\":\"true\",\"type\":\"line\",\"mode\":\"normal\",\"data\":{\"label\":\"Temperature 1\",\"id\":\"1\"},\"valueAxis\":\"ValueAxis-1\",\"drawLinesBetweenPoints\":true,\"showCircles\":true,\"lineWidth\":null},{\"show\":true,\"mode\":\"normal\",\"type\":\"line\",\"drawLinesBetweenPoints\":true,\"showCircles\":true,\"lineWidth\":null,\"data\":{\"id\":\"3\",\"label\":\"Temperature 2\"},\"valueAxis\":\"ValueAxis-1\"},{\"show\":true,\"mode\":\"normal\",\"type\":\"line\",\"drawLinesBetweenPoints\":true,\"showCircles\":true,\"data\":{\"id\":\"4\",\"label\":\"Humidity\"},\"valueAxis\":\"ValueAxis-1\",\"lineWidth\":null}],\"addTooltip\":true,\"addLegend\":true,\"legendPosition\":\"bottom\",\"times\":[],\"addTimeMarker\":false},\"aggs\":[{\"id\":\"1\",\"enabled\":true,\"type\":\"avg\",\"schema\":\"metric\",\"params\":{\"field\":\"Temperature1Alt\",\"customLabel\":\"Temperature 1\"}},{\"id\":\"2\",\"enabled\":true,\"type\":\"date_histogram\",\"schema\":\"segment\",\"params\":{\"field\":\"mDateTime\",\"interval\":\"auto\",\"customInterval\":\"2h\",\"min_doc_count\":1,\"extended_bounds\":{},\"customLabel\":\"Time\"}},{\"id\":\"3\",\"enabled\":true,\"type\":\"avg\",\"schema\":\"metric\",\"params\":{\"field\":\"Temperature2Alt\",\"customLabel\":\"Temperature 2\"}},{\"id\":\"4\",\"enabled\":true,\"type\":\"avg\",\"schema\":\"metric\",\"params\":{\"field\":\"Humidity\",\"customLabel\":\"Humidity\"}}]}",
      "uiStateJSON": "{\"vis\":{\"colors\":{\"Temperature 1\":\"#EF843C\",\"Temperature 2\":\"#E24D42\",\"Humidity\":\"#1F78C1\"}}}",
      "description": "",
      "version": 1,
      "kibanaSavedObjectMeta": {
        "searchSourceJSON": "{\"index\":\"df255740-5150-11e8-a734-c3770ed64262\",\"filter\":[],\"query\":{\"query\":\"\",\"language\":\"lucene\"}}"
      }
    },
    "_meta": {
      "savedObjectVersion": 2
    }
  },
  {
    "_id": "66fc00e0-51b2-11e8-a734-c3770ed64262",
    "_type": "visualization",
    "_source": {
      "title": "Temp2Gauge",
      "visState": "{\"title\":\"Temp2Gauge\",\"type\":\"gauge\",\"params\":{\"type\":\"gauge\",\"addTooltip\":true,\"addLegend\":true,\"isDisplayWarning\":false,\"gauge\":{\"verticalSplit\":false,\"extendRange\":true,\"percentageMode\":false,\"gaugeType\":\"Arc\",\"gaugeStyle\":\"Full\",\"backStyle\":\"Full\",\"orientation\":\"vertical\",\"colorSchema\":\"Green to Red\",\"gaugeColorMode\":\"Labels\",\"colorsRange\":[{\"from\":0,\"to\":26},{\"from\":26,\"to\":30},{\"from\":30,\"to\":100}],\"invertColors\":false,\"labels\":{\"show\":true,\"color\":\"black\"},\"scale\":{\"show\":true,\"labels\":false,\"color\":\"#333\"},\"type\":\"meter\",\"style\":{\"bgWidth\":0.9,\"width\":0.9,\"mask\":false,\"bgMask\":false,\"maskBars\":50,\"bgFill\":\"#eee\",\"bgColor\":false,\"subText\":\"\",\"fontSize\":60,\"labelColor\":true}}},\"aggs\":[{\"id\":\"1\",\"enabled\":true,\"type\":\"top_hits\",\"schema\":\"metric\",\"params\":{\"field\":\"Temperature2Alt\",\"aggregate\":\"average\",\"size\":1,\"sortField\":\"mDateTime\",\"sortOrder\":\"desc\",\"customLabel\":\"Last Temperature 2\"}}]}",
      "uiStateJSON": "{\"vis\":{\"defaultColors\":{\"0 - 26\":\"rgb(0,104,55)\",\"26 - 30\":\"rgb(255,255,190)\",\"30 - 100\":\"rgb(165,0,38)\"},\"colors\":{\"0 - 26\":\"#7EB26D\",\"26 - 30\":\"#6ED0E0\",\"30 - 100\":\"#E24D42\"},\"legendOpen\":true}}",
      "description": "",
      "version": 1,
      "kibanaSavedObjectMeta": {
        "searchSourceJSON": "{\"index\":\"df255740-5150-11e8-a734-c3770ed64262\",\"filter\":[],\"query\":{\"query\":\"\",\"language\":\"lucene\"}}"
      }
    },
    "_meta": {
      "savedObjectVersion": 2
    }
  },
  {
    "_id": "5aadd390-51b2-11e8-a734-c3770ed64262",
    "_type": "visualization",
    "_source": {
      "title": "Temp1Gauge",
      "visState": "{\"title\":\"Temp1Gauge\",\"type\":\"gauge\",\"params\":{\"type\":\"gauge\",\"addTooltip\":true,\"addLegend\":true,\"isDisplayWarning\":false,\"gauge\":{\"verticalSplit\":false,\"extendRange\":true,\"percentageMode\":false,\"gaugeType\":\"Arc\",\"gaugeStyle\":\"Full\",\"backStyle\":\"Full\",\"orientation\":\"vertical\",\"colorSchema\":\"Green to Red\",\"gaugeColorMode\":\"Labels\",\"colorsRange\":[{\"from\":0,\"to\":26},{\"from\":26,\"to\":30},{\"from\":30,\"to\":100}],\"invertColors\":false,\"labels\":{\"show\":true,\"color\":\"black\"},\"scale\":{\"show\":true,\"labels\":false,\"color\":\"#333\"},\"type\":\"meter\",\"style\":{\"bgWidth\":0.9,\"width\":0.9,\"mask\":false,\"bgMask\":false,\"maskBars\":50,\"bgFill\":\"#eee\",\"bgColor\":false,\"subText\":\"\",\"fontSize\":60,\"labelColor\":true}}},\"aggs\":[{\"id\":\"1\",\"enabled\":true,\"type\":\"top_hits\",\"schema\":\"metric\",\"params\":{\"field\":\"Temperature1Alt\",\"aggregate\":\"average\",\"size\":1,\"sortField\":\"mDateTime\",\"sortOrder\":\"desc\",\"customLabel\":\"Last Temperature 1\"}}]}",
      "uiStateJSON": "{\"vis\":{\"defaultColors\":{\"0 - 26\":\"rgb(0,104,55)\",\"26 - 30\":\"rgb(255,255,190)\",\"30 - 100\":\"rgb(165,0,38)\"},\"colors\":{\"0 - 26\":\"#7EB26D\",\"26 - 30\":\"#6ED0E0\",\"30 - 100\":\"#E24D42\"},\"legendOpen\":true}}",
      "description": "",
      "version": 1,
      "kibanaSavedObjectMeta": {
        "searchSourceJSON": "{\"index\":\"df255740-5150-11e8-a734-c3770ed64262\",\"filter\":[],\"query\":{\"query\":\"\",\"language\":\"lucene\"}}"
      }
    },
    "_meta": {
      "savedObjectVersion": 2
    }
  },
  {
    "_id": "bef75ea0-51a0-11e8-a734-c3770ed64262",
    "_type": "visualization",
    "_source": {
      "title": "CurrentChart",
      "visState": "{\"title\":\"CurrentChart\",\"type\":\"metrics\",\"params\":{\"id\":\"61ca57f0-469d-11e7-af02-69e470af7417\",\"type\":\"timeseries\",\"series\":[{\"id\":\"61ca57f1-469d-11e7-af02-69e470af7417\",\"color\":\"rgba(104,188,0,1)\",\"split_mode\":\"everything\",\"metrics\":[{\"id\":\"61ca57f2-469d-11e7-af02-69e470af7417\",\"type\":\"avg\",\"field\":\"Current_1\"}],\"seperate_axis\":0,\"axis_position\":\"right\",\"formatter\":\"number\",\"chart_type\":\"line\",\"line_width\":\"2\",\"point_size\":1,\"fill\":\"0\",\"stacked\":\"none\",\"label\":\"Current 1\"},{\"id\":\"59b40f70-51a0-11e8-86dd-f355509efe32\",\"color\":\"rgba(211,49,21,1)\",\"split_mode\":\"everything\",\"metrics\":[{\"id\":\"59b40f71-51a0-11e8-86dd-f355509efe32\",\"type\":\"avg\",\"field\":\"Current_2\"}],\"seperate_axis\":0,\"axis_position\":\"right\",\"formatter\":\"number\",\"chart_type\":\"line\",\"line_width\":\"2\",\"point_size\":1,\"fill\":\"0\",\"stacked\":\"none\",\"label\":\"Current 2\"},{\"id\":\"7dbaee20-51a0-11e8-86dd-f355509efe32\",\"color\":\"rgba(0,156,224,1)\",\"split_mode\":\"everything\",\"metrics\":[{\"id\":\"7dbaee21-51a0-11e8-86dd-f355509efe32\",\"type\":\"avg\",\"field\":\"Current_3\"}],\"seperate_axis\":0,\"axis_position\":\"right\",\"formatter\":\"number\",\"chart_type\":\"line\",\"line_width\":\"2\",\"point_size\":1,\"fill\":\"0\",\"stacked\":\"none\",\"label\":\"Current 3\"},{\"id\":\"8d6c6ab0-51a0-11e8-86dd-f355509efe32\",\"color\":\"rgba(226,115,0,1)\",\"split_mode\":\"everything\",\"metrics\":[{\"id\":\"8d6c6ab1-51a0-11e8-86dd-f355509efe32\",\"type\":\"avg\",\"field\":\"Current_4\"}],\"seperate_axis\":0,\"axis_position\":\"right\",\"formatter\":\"number\",\"chart_type\":\"line\",\"line_width\":\"2\",\"point_size\":1,\"fill\":\"0\",\"stacked\":\"none\",\"label\":\"Current 4\"}],\"time_field\":\"mDateTime\",\"index_pattern\":\"ipmsindex\",\"interval\":\"auto\",\"axis_position\":\"left\",\"axis_formatter\":\"number\",\"show_legend\":1,\"show_grid\":1,\"legend_position\":\"bottom\"},\"aggs\":[]}",
      "uiStateJSON": "{}",
      "description": "",
      "version": 1,
      "kibanaSavedObjectMeta": {
        "searchSourceJSON": "{}"
      }
    },
    "_meta": {
      "savedObjectVersion": 2
    }
  },
  {
    "_id": "71413540-51a6-11e8-a734-c3770ed64262",
    "_type": "visualization",
    "_source": {
      "title": "SensorIconMertrics",
      "visState": "{\"title\":\"SensorIconMertrics\",\"type\":\"metric\",\"params\":{\"addTooltip\":true,\"addLegend\":false,\"type\":\"metric\",\"metric\":{\"percentageMode\":false,\"useRanges\":false,\"colorSchema\":\"Green to Red\",\"metricColorMode\":\"None\",\"colorsRange\":[{\"from\":0,\"to\":10000}],\"labels\":{\"show\":true},\"invertColors\":false,\"style\":{\"bgFill\":\"#000\",\"bgColor\":false,\"labelColor\":false,\"subText\":\"\",\"fontSize\":20}}},\"aggs\":[{\"id\":\"1\",\"enabled\":true,\"type\":\"top_hits\",\"schema\":\"metric\",\"params\":{\"field\":\"SmokeIcon\",\"aggregate\":\"concat\",\"size\":1,\"sortField\":\"mDateTime\",\"sortOrder\":\"desc\",\"customLabel\":\"Sensor\"}},{\"id\":\"2\",\"enabled\":true,\"type\":\"top_hits\",\"schema\":\"metric\",\"params\":{\"field\":\"HeatIcon\",\"aggregate\":\"concat\",\"size\":1,\"sortField\":\"mDateTime\",\"sortOrder\":\"desc\",\"customLabel\":\"Sensor\"}},{\"id\":\"3\",\"enabled\":true,\"type\":\"top_hits\",\"schema\":\"metric\",\"params\":{\"field\":\"DoorIcon\",\"aggregate\":\"concat\",\"size\":1,\"sortField\":\"mDateTime\",\"sortOrder\":\"desc\",\"customLabel\":\"Sensor\"}},{\"id\":\"4\",\"enabled\":true,\"type\":\"top_hits\",\"schema\":\"metric\",\"params\":{\"field\":\"FloodIcon\",\"aggregate\":\"concat\",\"size\":1,\"sortField\":\"mDateTime\",\"sortOrder\":\"desc\",\"customLabel\":\"Sensor\"}}]}",
      "uiStateJSON": "{}",
      "description": "",
      "version": 1,
      "kibanaSavedObjectMeta": {
        "searchSourceJSON": "{\"index\":\"df255740-5150-11e8-a734-c3770ed64262\",\"filter\":[],\"query\":{\"query\":\"\",\"language\":\"lucene\"}}"
      }
    },
    "_meta": {
      "savedObjectVersion": 2
    }
  },
  {
    "_id": "4a3e54d0-51cb-11e8-a734-c3770ed64262",
    "_type": "visualization",
    "_source": {
      "title": "Temp1Pie",
      "visState": "{\"title\":\"Temp1Pie\",\"type\":\"pie\",\"params\":{\"addLegend\":true,\"addTooltip\":true,\"isDonut\":true,\"labels\":{\"last_level\":true,\"show\":false,\"truncate\":100,\"values\":true},\"legendPosition\":\"bottom\",\"type\":\"pie\"},\"aggs\":[{\"id\":\"1\",\"enabled\":true,\"type\":\"count\",\"schema\":\"metric\",\"params\":{\"customLabel\":\"Temperature 1\"}},{\"id\":\"2\",\"enabled\":true,\"type\":\"range\",\"schema\":\"segment\",\"params\":{\"field\":\"Temperature1Alt\",\"ranges\":[{\"from\":0,\"to\":26},{\"from\":26,\"to\":30},{\"from\":30,\"to\":100}],\"customLabel\":\"Temperature 1\"}}]}",
      "uiStateJSON": "{}",
      "description": "",
      "version": 1,
      "kibanaSavedObjectMeta": {
        "searchSourceJSON": "{\"index\":\"df255740-5150-11e8-a734-c3770ed64262\",\"filter\":[],\"query\":{\"query\":\"\",\"language\":\"lucene\"}}"
      }
    },
    "_meta": {
      "savedObjectVersion": 2
    }
  },
  {
    "_id": "5a746ab0-51cb-11e8-a734-c3770ed64262",
    "_type": "visualization",
    "_source": {
      "title": "Temp2Pie",
      "visState": "{\"title\":\"Temp2Pie\",\"type\":\"pie\",\"params\":{\"addLegend\":true,\"addTooltip\":true,\"isDonut\":true,\"labels\":{\"last_level\":true,\"show\":false,\"truncate\":100,\"values\":true},\"legendPosition\":\"bottom\",\"type\":\"pie\"},\"aggs\":[{\"id\":\"1\",\"enabled\":true,\"type\":\"count\",\"schema\":\"metric\",\"params\":{\"customLabel\":\"Temperature 2\"}},{\"id\":\"2\",\"enabled\":true,\"type\":\"range\",\"schema\":\"segment\",\"params\":{\"field\":\"Temperature2Alt\",\"ranges\":[{\"from\":0,\"to\":26},{\"from\":26,\"to\":30},{\"from\":30,\"to\":100}],\"customLabel\":\"Temperature 2\"}}]}",
      "uiStateJSON": "{}",
      "description": "",
      "version": 1,
      "kibanaSavedObjectMeta": {
        "searchSourceJSON": "{\"index\":\"df255740-5150-11e8-a734-c3770ed64262\",\"filter\":[],\"query\":{\"query\":\"\",\"language\":\"lucene\"}}"
      }
    },
    "_meta": {
      "savedObjectVersion": 2
    }
  },
  {
    "_id": "d93529b0-519f-11e8-a734-c3770ed64262",
    "_type": "visualization",
    "_source": {
      "title": "TempHumChart",
      "visState": "{\"title\":\"TempHumChart\",\"type\":\"metrics\",\"params\":{\"id\":\"61ca57f0-469d-11e7-af02-69e470af7417\",\"type\":\"timeseries\",\"series\":[{\"id\":\"3b379800-519b-11e8-86dd-f355509efe32\",\"color\":\"rgba(211,49,21,1)\",\"split_mode\":\"everything\",\"metrics\":[{\"id\":\"3b379801-519b-11e8-86dd-f355509efe32\",\"type\":\"avg\",\"field\":\"Temperature_1\"}],\"seperate_axis\":0,\"axis_position\":\"right\",\"formatter\":\"number\",\"chart_type\":\"line\",\"line_width\":\"2\",\"point_size\":1,\"fill\":\"0\",\"stacked\":\"none\",\"override_index_pattern\":0,\"label\":\"Temperature 1\",\"terms_field\":\"Active_1.keyword\",\"split_color_mode\":\"gradient\"},{\"id\":\"09504be0-519e-11e8-86dd-f355509efe32\",\"color\":\"rgba(104,188,0,1)\",\"split_mode\":\"everything\",\"metrics\":[{\"id\":\"09504be1-519e-11e8-86dd-f355509efe32\",\"type\":\"avg\",\"field\":\"Temperature_2\"}],\"seperate_axis\":0,\"axis_position\":\"right\",\"formatter\":\"number\",\"chart_type\":\"line\",\"line_width\":\"2\",\"point_size\":1,\"fill\":\"0\",\"stacked\":\"none\",\"label\":\"Temperature 2\"},{\"id\":\"1e06c450-519f-11e8-86dd-f355509efe32\",\"color\":\"rgba(0,98,177,1)\",\"split_mode\":\"everything\",\"metrics\":[{\"id\":\"1e06c451-519f-11e8-86dd-f355509efe32\",\"type\":\"avg\",\"field\":\"Humidity\"}],\"seperate_axis\":0,\"axis_position\":\"right\",\"formatter\":\"number\",\"chart_type\":\"line\",\"line_width\":\"2\",\"point_size\":1,\"fill\":\"0\",\"stacked\":\"none\",\"label\":\"Humidity\",\"split_color_mode\":\"gradient\"}],\"time_field\":\"mDateTime\",\"index_pattern\":\"ipmsindex\",\"interval\":\"auto\",\"axis_position\":\"left\",\"axis_formatter\":\"number\",\"show_legend\":1,\"show_grid\":1,\"background_color_rules\":[{\"id\":\"a08ac9e0-5194-11e8-86dd-f355509efe32\"}],\"bar_color_rules\":[{\"id\":\"a2247cb0-5194-11e8-86dd-f355509efe32\"}],\"gauge_color_rules\":[{\"id\":\"281bee60-519b-11e8-86dd-f355509efe32\"}],\"gauge_width\":10,\"gauge_inner_width\":10,\"gauge_style\":\"half\",\"axis_min\":\"0\",\"axis_max\":\"100\",\"legend_position\":\"bottom\"},\"aggs\":[]}",
      "uiStateJSON": "{}",
      "description": "",
      "version": 1,
      "kibanaSavedObjectMeta": {
        "searchSourceJSON": "{}"
      }
    },
    "_meta": {
      "savedObjectVersion": 2
    }
  }
]